Bio-494 Week 1
…
## 
##  Column specification 
## cols(
##   title = col_character(),
##   metacritic = col_double(),
##   rotten_tomatoes = col_double()
## )

Including Plots

You can also embed plots, for example:

movies_imdb %>% select(movie_title,title_year,duration,imdb_score)

## # A tibble: 4,704 x 4
##    movie_title                              title_year duration imdb_score
##    <chr>                                         <dbl>    <dbl>      <dbl>
##  1 Avatar                                         2009      178        7.9
##  2 Pirates of the Caribbean: At World's End       2007      169        7.1
##  3 Spectre                                        2015      148        6.8
##  4 The Dark Knight Rises                          2012      164        8.5
##  5 John Carter                                    2012      132        6.6
##  6 Spider-Man 3                                   2007      156        6.2
##  7 Tangled                                        2010      100        7.8
##  8 Avengers: Age of Ultron                        2015      141        7.5
##  9 Harry Potter and the Half-Blood Prince         2009      153        7.5
## 10 Batman v Superman: Dawn of Justice             2016      183        6.9
## #  with 4,694 more rows
…
